[
  {
    "context": "Editor && mode == full",
    "bindings": {
      "ctrl-enter": "editor::NewlineBelow",
      "ctrl-shift-enter": "editor::NewlineAbove"
    }
  },
  {
    "context": "Editor && !menu",
    "bindings": {
      "ctrl-c": "editor::Copy", // vim default: return to normal mode
      "ctrl-x": "editor::Cut", // vim default: increment
      "ctrl-v": "editor::Paste", // vim default: visual block mode
      "ctrl-y": "editor::Undo", // vim default: line up
      "ctrl-f": "buffer_search::Deploy", // vim default: page down
      "ctrl-o": "workspace::Open", // vim default: go back
      "ctrl-a": "editor::SelectAll" // vim default: increment
    }
  }
]
