{
	// Place your snippets for javascript here. Each snippet is defined under a snippet name and has a prefix, body and 
	// description. The prefix is what is used to trigger the snippet and the body will be expanded and inserted. Possible variables are:
	// $1, $2 for tab stops, $0 for the final cursor position, and ${1:label}, ${2:another} for placeholders. Placeholders with the 
	// same ids are connected.
	// Example:
	// "Print to console": {
	// 	"prefix": "log",
	// 	"body": [
	// 		"console.log('$1');",
	// 		"$2"
	// 	],
	// 	"description": "Log output to console"
	// }
	"console.log('var')": {
		"prefix": "l",
		"body": "console.log('$1')"
	},
	"console.log('var', var)": {
		"prefix": "ll",
		"body": "console.log('$1', $1)"
	},
	"console.log('var', JSON(var))": {
		"prefix": "lll",
		"body": "console.log('$1', JSON.stringify($1, null, 4))"
	},
	"import styled": {
		"prefix": "is",
		"body": "import styled, {css} from 'styled-components';"
	}
}
